STATS 551 PROJECT
…
  .. ..$ : int [1:23] 881 882 883 884 885 886 887 888 889 890 ...
  .. ..$ : int [1:21] 904 905 906 907 908 909 910 911 912 913 ...
  .. ..$ : int [1:23] 925 926 927 928 929 930 931 932 933 934 ...
  .. ..$ : int [1:23] 948 949 950 951 952 953 954 955 956 957 ...
  .. ..$ : int [1:20] 971 972 973 974 975 976 977 978 979 980 ...
  .. ..$ : int [1:23] 991 992 993 994 995 996 997 998 999 1000 ...
  .. ..$ : int [1:23] 1014 1015 1016 1017 1018 1019 1020 1021 1022 1023 ...
  .. ..$ : int [1:23] 1037 1038 1039 1040 1041 1042 1043 1044 1045 1046 ...
  .. ..$ : int [1:23] 1060 1061 1062 1063 1064 1065 1066 1067 1068 1069 ...
  .. ..$ : int [1:23] 1083 1084 1085 1086 1087 1088 1089 1090 1091 1092 ...
  .. ..$ : int [1:23] 1106 1107 1108 1109 1110 1111 1112 1113 1114 1115 ...
  .. ..@ ptype: int(0) 
  ..- attr(*, ".drop")= logi TRUE

# A tibble: 50 × 55
   States      year_mean year_median year_sd avg_max_aqi_mean avg_max_aqi_median
   <chr>           <dbl>       <dbl>   <dbl>            <dbl>              <dbl>
 1 Alabama         2010        2010     6.78             117.              113. 
 2 Alaska          2010        2010     6.78             111.              102. 
 3 Arizona         2010        2010     6.78             184.              172. 
 4 Arkansas        2010.       2010.    6.76             100.               99.9
 5 California      2011.       2012     6.45             306.              283. 
 6 Colorado        2010        2010     6.78             115.              112. 
 7 Connecticut     2010.       2010.    6.65             170.              166. 
 8 Delaware        2010.       2010.    6.81             160.              164. 
 9 Florida         2010        2010     6.78             117.              117. 
10 Georgia         2010        2010     6.78             130.              130. 
# ℹ 40 more rows
# ℹ 49 more variables: avg_max_aqi_sd <dbl>,
#   avg_x90th_percentile_aqi_mean <dbl>, avg_x90th_percentile_aqi_median <dbl>,
#   avg_x90th_percentile_aqi_sd <dbl>, avg_median_aqi_mean <dbl>,
#   avg_median_aqi_median <dbl>, avg_median_aqi_sd <dbl>,
#   avg_days_with_aqi_mean <dbl>, avg_days_with_aqi_median <dbl>,
#   avg_days_with_aqi_sd <dbl>, avg_good_days_mean <dbl>, …
…
